…
-   `<name-of-data-tibble>`: Display the first 10 rows and all columns that fit on one screen. It also prints an abbreviated description of the column type.
-   `head(<name-of-df>)`, `tail(<name-of-df>)`: Return the first or last part. Use these commands if it is not a tibble but a data frame
-   `dim()`: Retrieve the dimension
-   `names()`: Get the names
-   `str()`: Display compactly the internal structure
-   `glimpse()`: is the `dplyr`-version of `str()` showing values of each variable the whole sceen width, but does not display the number of levels and names of factor variables. But this feature of `str()` cannot be displayed completly with either many or long levels names.
-   `View()`: With [RStudio](https://www.rstudio.com/) you can see and inspect the data set comfortably. The `View()` function invokes a spreadsheet-style data viewer.

You can see and inspect the data set comfortably in RStudio with the `View()` command, which invokes a spreadsheet-style data viewer on a matrix-like R object.

``` r
> CDC
```

    # A tibble: 20,000 × 9
         genhlth exerany hlthplan smoke100 height weight wtdesire   age gender
    *     <fctr>   <dbl>    <dbl>    <dbl>  <dbl>  <int>    <int> <int> <fctr>
    1       good       0        1        0     70    175      175    77      m
    2       good       0        1        1     64    125      115    33      f
    3       good       1        1        1     60    105      105    49      f
    4       good       1        1        0     66    132      124    42      f
    5  very good       0        1        0     61    150      130    55      f
    6  very good       1        1        0     64    114      114    55      f
    7  very good       1        1        0     71    194      185    31      m
    8  very good       0        1        0     67    170      160    45      m
    9       good       0        1        1     65    150      130    27      f
    10      good       1        1        0     70    180      170    44      m
    # ... with 19,990 more rows
…
